{
	"total": 126,
	"per_page": 30,
	"current_page": 1,
	"last_page": 5,
	"next_page_url": "https://animepahe.ru/api?page=2",
	"prev_page_url": null,
	"from": 1,
	"to": 30,
	"data": [
		{
			"id": 5832,
			"anime_id": 2670,
			"episode": 1,
			"episode2": 0,
			"edition": "",
			"title": "",
			"snapshot": "https://i.animepahe.ru/snapshots/d675bdb9b6a483ccb92ef45d36ec66b6.jpg",
			"disc": "",
			"audio": "jpn",
			"duration": "00:24:40",
			"session": "05efbee0c616a718d9780709a031ef7a50da735636aa8e8fdeb6eaa8cb21a741",
			"filler": 0,
			"created_at": "2018-07-10 13:40:23"
		},
		{
			"id": 5833,
			"anime_id": 2670,
			"episode": 2,
			"episode2": 0,
			"edition": "",
			"title": "",
			"snapshot": "https://i.animepahe.ru/snapshots/7924585a900870ce3f6697ffdba3aa0e.jpg",
			"disc": "",
			"audio": "jpn",
			"duration": "00:24:40",
			"session": "1cb5567491732eb59bb280cf51e5860a6be91e1348fbfca79b2ef4162503320e",
			"filler": 0,
			"created_at": "2018-07-10 13:49:24"
		},
		{
			"id": 5834,
			"anime_id": 2670,
			"episode": 3,
			"episode2": 0,
			"edition": "",
			"title": "",
			"snapshot": "https://i.animepahe.ru/snapshots/bed2331ee86fb8d7e7a3e050937a1134.jpg",
			"disc": "",
			"audio": "jpn",
			"duration": "00:24:40",
			"session": "51af5dcd660e5fc8abfb81bdb0cb88cafbadccddd127ed35596c1d855926fd70",
			"filler": 0,
			"created_at": "2018-07-10 13:56:55"
		},
		{
			"id": 5835,
			"anime_id": 2670,
			"episode": 4,
			"episode2": 0,
			"edition": "",
			"title": "",
			"snapshot": "https://i.animepahe.ru/snapshots/66cf6d42540cddaf11e48fd420875caf.jpg",
			"disc": "",
			"audio": "jpn",
			"duration": "00:24:40",
			"session": "97bff268bce9c3a826106ad62be751663b1cbc9af4a3392a207432c8f1ac1dea",
			"filler": 0,
			"created_at": "2018-07-10 14:04:29"
		},
		{
			"id": 5836,
			"anime_id": 2670,
			"episode": 5,
			"episode2": 0,
			"edition": "",
			"title": "",
			"snapshot": "https://i.animepahe.ru/snapshots/f1f126bb3a1cc01fce97b28d480c0d81.jpg",
			"disc": "",
			"audio": "jpn",
			"duration": "00:24:40",
			"session": "434635762e482db5c8d0517e330caaf48b582efa1b3937e140b927c2d8d82baa",
			"filler": 0,
			"created_at": "2018-07-10 14:11:49"
		},
		{
			"id": 5837,
			"anime_id": 2670,
			"episode": 6,
			"episode2": 0,
			"edition": "",
			"title": "",
			"snapshot": "https://i.animepahe.ru/snapshots/635f5bf4f3827e2dc56ab6f9d0ef5f0f.jpg",
			"disc": "",
			"audio": "jpn",
			"duration": "00:24:40",
			"session": "74cf086bacdde30740417d1c381e4fd0d59affe883f8526ffff65da84a58bf95",
			"filler": 0,
			"created_at": "2018-07-10 14:19:06"
		},
		{
			"id": 5838,
			"anime_id": 2670,
			"episode": 7,
			"episode2": 0,
			"edition": "",
			"title": "",
			"snapshot": "https://i.animepahe.ru/snapshots/93a4ac1d020e04e6a11bc0d2c6ce7c6f.jpg",
			"disc": "",
			"audio": "jpn",
			"duration": "00:24:40",
			"session": "e29cedefbf2676d4915ca73116aedbab7c98769682d1881ee992fafa5191e952",
			"filler": 0,
			"created_at": "2018-07-10 14:26:03"
		},
		{
			"id": 5839,
			"anime_id": 2670,
			"episode": 8,
			"episode2": 0,
			"edition": "",
			"title": "",
			"snapshot": "https://i.animepahe.ru/snapshots/d5612676c8ca8a1af72271b58896a6e6.jpg",
			"disc": "",
			"audio": "jpn",
			"duration": "00:24:40",
			"session": "62d70e4b2015f2efeaf01bc7689776eeea02a1f06b6f9c946882fe8c110cb027",
			"filler": 0,
			"created_at": "2018-07-10 14:35:24"
		},
		{
			"id": 5840,
			"anime_id": 2670,
			"episode": 9,
			"episode2": 0,
			"edition": "",
			"title": "",
			"snapshot": "https://i.animepahe.ru/snapshots/6846b5c33219db0d93c1814abd61c1d8.jpg",
			"disc": "",
			"audio": "jpn",
			"duration": "00:24:40",
			"session": "16e834e03fdb980640cdaf2f0a2d192d7f6547eb924f618f04e068ba8ffcb08c",
			"filler": 0,
			"created_at": "2018-07-10 14:42:15"
		},
		{
			"id": 5841,
			"anime_id": 2670,
			"episode": 10,
			"episode2": 0,
			"edition": "",
			"title": "",
			"snapshot": "https://i.animepahe.ru/snapshots/a5ff52d0d283111a941f21aeefca30ca.jpg",
			"disc": "",
			"audio": "jpn",
			"duration": "00:24:40",
			"session": "9be0897d79c3ba4771c9f8f086b36adb0caabb586730694631d6cfffe8775adf",
			"filler": 0,
			"created_at": "2018-07-10 14:47:50"
		},
		{
			"id": 5842,
			"anime_id": 2670,
			"episode": 11,
			"episode2": 0,
			"edition": "",
			"title": "",
			"snapshot": "https://i.animepahe.ru/snapshots/e0d380932470dd63d88fd8376a230231.jpg",
			"disc": "",
			"audio": "jpn",
			"duration": "00:24:40",
			"session": "98cf0ae953c47c28805b1a1c483afb3a3df7e66925eaa6e09c99474df9d3e369",
			"filler": 0,
			"created_at": "2018-07-10 14:54:34"
		},
		{
			"id": 5843,
			"anime_id": 2670,
			"episode": 12,
			"episode2": 0,
			"edition": "",
			"title": "",
			"snapshot": "https://i.animepahe.ru/snapshots/d7a0e0320aa3870b4aa1e51f0e2a478f.jpg",
			"disc": "",
			"audio": "jpn",
			"duration": "00:24:40",
			"session": "8b0cad957a9762b5a6edab19e3391775fe299558181afa08c42dbe5c82d46f79",
			"filler": 0,
			"created_at": "2018-07-10 15:00:09"
		},
		{
			"id": 5844,
			"anime_id": 2670,
			"episode": 13,
			"episode2": 0,
			"edition": "",
			"title": "",
			"snapshot": "https://i.animepahe.ru/snapshots/c213b7042aae908430302fc0ddffefd9.jpg",
			"disc": "",
			"audio": "jpn",
			"duration": "00:24:40",
			"session": "c57d6c8b4b430e380fc7e23d2d833307e45ffbbf21b8c47fd673361b5e3262a5",
			"filler": 0,
			"created_at": "2018-07-10 15:09:59"
		},
		{
			"id": 5846,
			"anime_id": 2670,
			"episode": 14,
			"episode2": 0,
			"edition": "",
			"title": "",
			"snapshot": "https://i.animepahe.ru/snapshots/f5f8f811d018ab991652e57a09f84f50.jpg",
			"disc": "",
			"audio": "jpn",
			"duration": "00:24:40",
			"session": "8bb64c6dc6a9c02701000797120c114fb4ef8c501d222af3adfcf303c9560743",
			"filler": 0,
			"created_at": "2018-07-10 15:21:48"
		},
		{
			"id": 5847,
			"anime_id": 2670,
			"episode": 15,
			"episode2": 0,
			"edition": "",
			"title": "",
			"snapshot": "https://i.animepahe.ru/snapshots/5bd4f2a176c8e33d7445c2060d60f49d.jpg",
			"disc": "",
			"audio": "jpn",
			"duration": "00:24:40",
			"session": "1804b3303a0de623f20b81a72c67606e7c076d1e819cf0e584fdef7defc55824",
			"filler": 0,
			"created_at": "2018-07-10 15:27:50"
		},
		{
			"id": 5848,
			"anime_id": 2670,
			"episode": 16,
			"episode2": 0,
			"edition": "",
			"title": "",
			"snapshot": "https://i.animepahe.ru/snapshots/217b0f806efd872608bde1f3bf7d9af7.jpg",
			"disc": "",
			"audio": "jpn",
			"duration": "00:24:40",
			"session": "542ccf35d9eb5e4e2e532d5aa97108716d217577c8dbe9e9871d8dc41c2bde5e",
			"filler": 0,
			"created_at": "2018-07-10 15:34:57"
		},
		{
			"id": 5849,
			"anime_id": 2670,
			"episode": 17,
			"episode2": 0,
			"edition": "",
			"title": "",
			"snapshot": "https://i.animepahe.ru/snapshots/20d1ae86eb69c637e9ba9c6717cfd327.jpg",
			"disc": "",
			"audio": "jpn",
			"duration": "00:24:40",
			"session": "32894c9fdc4c01768bdbed4a43c193f02f0e6d38bf13e7123cffaaf1cfd594b2",
			"filler": 0,
			"created_at": "2018-07-10 15:41:03"
		},
		{
			"id": 5850,
			"anime_id": 2670,
			"episode": 18,
			"episode2": 0,
			"edition": "",
			"title": "",
			"snapshot": "https://i.animepahe.ru/snapshots/e49a1bc40ed71ae11cc39d555b709e16.jpg",
			"disc": "",
			"audio": "jpn",
			"duration": "00:24:40",
			"session": "aac21c5435f131989413c805ff9c2c1b0705d57c2094aefc84950274a235115f",
			"filler": 0,
			"created_at": "2018-07-10 15:48:59"
		},
		{
			"id": 5851,
			"anime_id": 2670,
			"episode": 19,
			"episode2": 0,
			"edition": "",
			"title": "",
			"snapshot": "https://i.animepahe.ru/snapshots/cf96c8bf4a181ec945e4221d3d251f76.jpg",
			"disc": "",
			"audio": "jpn",
			"duration": "00:24:40",
			"session": "8a52bcd3310575eaaa8311b47ee030183ac1ebf9243e35e3b076cd8b08490355",
			"filler": 0,
			"created_at": "2018-07-10 15:56:05"
		},
		{
			"id": 5853,
			"anime_id": 2670,
			"episode": 20,
			"episode2": 0,
			"edition": "",
			"title": "",
			"snapshot": "https://i.animepahe.ru/snapshots/b65069277c8c36452a40dec82c2d1d25.jpg",
			"disc": "",
			"audio": "jpn",
			"duration": "00:24:40",
			"session": "cb330caef3aa19ca5d966f6d7aaa7553ce74042dd71c765df49b12b33b557ca1",
			"filler": 0,
			"created_at": "2018-07-10 16:09:18"
		},
		{
			"id": 5854,
			"anime_id": 2670,
			"episode": 21,
			"episode2": 0,
			"edition": "",
			"title": "",
			"snapshot": "https://i.animepahe.ru/snapshots/c2f722974087810e3aefaf502a0d9511.jpg",
			"disc": "",
			"audio": "jpn",
			"duration": "00:24:45",
			"session": "c2bf5ddbc7d862c2be33cc7a2f1519567a109ebad51d85f4924fa8077de87b53",
			"filler": 0,
			"created_at": "2018-07-10 16:17:35"
		},
		{
			"id": 5855,
			"anime_id": 2670,
			"episode": 22,
			"episode2": 0,
			"edition": "",
			"title": "",
			"snapshot": "https://i.animepahe.ru/snapshots/41b09ca9e607ac70cdd360e5a196cca0.jpg",
			"disc": "",
			"audio": "jpn",
			"duration": "00:24:40",
			"session": "b81712f057caf42bae7a23e64a77ff1adc75209fb3193effa84ea06cf16a0ca4",
			"filler": 0,
			"created_at": "2018-07-10 16:23:30"
		},
		{
			"id": 5856,
			"anime_id": 2670,
			"episode": 23,
			"episode2": 0,
			"edition": "",
			"title": "",
			"snapshot": "https://i.animepahe.ru/snapshots/a2c98e367e3d2167270fa9d36a89af47.jpg",
			"disc": "",
			"audio": "jpn",
			"duration": "00:24:40",
			"session": "c313b931212d0c8131765e912b1771f636c016353930be5c592f8661c09ff427",
			"filler": 0,
			"created_at": "2018-07-10 16:29:45"
		},
		{
			"id": 5858,
			"anime_id": 2670,
			"episode": 24,
			"episode2": 0,
			"edition": "",
			"title": "",
			"snapshot": "https://i.animepahe.ru/snapshots/4bd1cdd95beee894974ab0ece42d79ac.jpg",
			"disc": "",
			"audio": "jpn",
			"duration": "00:24:40",
			"session": "f59b3ec636a08df289cd8516f6211ac0534fc774e079803afffb7fbc6fa51274",
			"filler": 0,
			"created_at": "2018-07-10 16:35:41"
		},
		{
			"id": 5859,
			"anime_id": 2670,
			"episode": 25,
			"episode2": 0,
			"edition": "",
			"title": "",
			"snapshot": "https://i.animepahe.ru/snapshots/8866ac8462b0d7ca040213e8039c2ca2.jpg",
			"disc": "",
			"audio": "jpn",
			"duration": "00:24:45",
			"session": "abdd6a97e828ec5112a7016b01403ec2419f423a9999002d3ba9acf0c721d851",
			"filler": 0,
			"created_at": "2018-07-10 16:43:49"
		},
		{
			"id": 5861,
			"anime_id": 2670,
			"episode": 26,
			"episode2": 0,
			"edition": "",
			"title": "",
			"snapshot": "https://i.animepahe.ru/snapshots/bdddd0e6a352a0fc609a6e936a093a07.jpg",
			"disc": "",
			"audio": "jpn",
			"duration": "00:24:45",
			"session": "7051ca524a32f0e7d308e8d84d49b4763c37ca0f3b399adcc7fd157a2ff05079",
			"filler": 0,
			"created_at": "2018-07-10 16:52:42"
		},
		{
			"id": 5862,
			"anime_id": 2670,
			"episode": 27,
			"episode2": 0,
			"edition": "",
			"title": "",
			"snapshot": "https://i.animepahe.ru/snapshots/bb6497083fd5554965d27f6150a11132.jpg",
			"disc": "",
			"audio": "jpn",
			"duration": "00:24:30",
			"session": "ff9ebb38fe5d7e91f49c93f94b7670fcb7843f5a6123c64f9cbd605c5de582c8",
			"filler": 0,
			"created_at": "2018-07-10 16:59:24"
		},
		{
			"id": 5864,
			"anime_id": 2670,
			"episode": 28,
			"episode2": 0,
			"edition": "",
			"title": "",
			"snapshot": "https://i.animepahe.ru/snapshots/bb2c4f0e42a67c8f08e77b3b2e206039.jpg",
			"disc": "",
			"audio": "jpn",
			"duration": "00:24:30",
			"session": "dbbd940d47751cc242a5325fcedf2fd1c432079213ea206ae516aab82b329559",
			"filler": 0,
			"created_at": "2018-07-10 17:06:16"
		},
		{
			"id": 5866,
			"anime_id": 2670,
			"episode": 29,
			"episode2": 0,
			"edition": "",
			"title": "",
			"snapshot": "https://i.animepahe.ru/snapshots/2baa2027f221410d6fbb8c4cf065208a.jpg",
			"disc": "",
			"audio": "jpn",
			"duration": "00:24:30",
			"session": "12ee9720be7193e6282f4f3a0d838b993a1a46955c60a9bc189273efaf32ad79",
			"filler": 0,
			"created_at": "2018-07-10 17:14:06"
		},
		{
			"id": 5867,
			"anime_id": 2670,
			"episode": 30,
			"episode2": 0,
			"edition": "",
			"title": "",
			"snapshot": "https://i.animepahe.ru/snapshots/ea00c15ced9bfb0c1a38e8aed99fc192.jpg",
			"disc": "",
			"audio": "jpn",
			"duration": "00:24:30",
			"session": "5b55638ab376bab548c3b458e0d2c8b00d87e071240139af153ed19f1ed83fd0",
			"filler": 0,
			"created_at": "2018-07-10 17:21:46"
		}
	]
}
